<svg xmlns="http://www.w3.org/2000/svg" width="33" height="33" viewBox="0 0 33 33">
    <g fill="#A01714" fill-rule="nonzero">
        <path d="M25.087 19.915a2.077 2.077 0 0 0-1.488-.624h-.001c-.564 0-1.093.222-1.492.624l-2.98 3.01-8.946-9.032 2.982-3.01c.398-.403.617-.938.616-1.508 0-.568-.22-1.104-.617-1.505L8.689 3.353a2.085 2.085 0 0 0-1.49-.623c-.565 0-1.094.223-1.491.625L1.234 7.872c-.459.463-4.138 4.855 7.454 16.56 6.85 6.92 11.172 8.45 13.654 8.45 1.72 0 2.558-.734 2.745-.923l4.471-4.515c.4-.401.619-.935.619-1.505a2.12 2.12 0 0 0-.618-1.508l-4.472-4.516zm-1.49 10.538c-.032.03-3.594 2.394-13.419-7.527C.143 12.792 2.728 9.376 2.724 9.376l4.473-4.518 4.473 4.518-3.726 3.763a1.07 1.07 0 0 0 0 1.506l10.435 10.537a1.046 1.046 0 0 0 1.49 0l3.726-3.764 4.473 4.518-4.471 4.517z"/>
        <path d="M30.774 0h-12.65a2.12 2.12 0 0 0-2.109 2.129v9.58a2.12 2.12 0 0 0 2.109 2.13h5.27v3.193c0 .43.257.819.65.984a1.052 1.052 0 0 0 1.15-.231l3.908-3.946h1.672a2.12 2.12 0 0 0 2.108-2.13V2.13A2.12 2.12 0 0 0 30.774 0zm0 11.71h-2.109c-.28 0-.548.111-.745.312l-2.417 2.44v-1.688a1.06 1.06 0 0 0-1.054-1.064h-6.325V2.129h12.65v9.58z"/>
        <path d="M24.449 4.258h4.217v2.129h-4.217zM20.232 7.452h8.433v2.129h-8.433z"/>
    </g>
</svg>
