<svg xmlns="http://www.w3.org/2000/svg" width="34" height="33" viewBox="0 0 34 33">
    <g fill="#A01714" fill-rule="nonzero">
        <path d="M33.757.322H.243v32.477h33.514V.322zM31.41 30.424H2.59V2.656h28.82v27.768z"/>
        <path d="M4.048 15.776h1.417v1.409H4.048zM28.536 15.776h1.417v1.409h-1.417zM16.271 3.622h1.417v1.409h-1.417zM16.271 27.97h1.417v1.409h-1.417zM16.393 20.565c.567 0 1.093-.121 1.578-.363l4.493 3.622 1.498-1.81-4.25-3.421c.283-.523.405-1.087.405-1.69 0-1.69-1.134-3.1-2.712-3.542v-6.64h-2.348v6.801a3.646 3.646 0 0 0-2.347 3.42c0 1.973 1.659 3.623 3.683 3.623zm0-4.99c.728 0 1.336.603 1.336 1.327 0 .725-.608 1.328-1.336 1.328a1.344 1.344 0 0 1-1.336-1.328c0-.724.607-1.328 1.336-1.328z"/>
    </g>
</svg>
